<svg xmlns="http://www.w3.org/2000/svg" width="1800" height="2550" viewBox="0 0 1800 2550">
  <defs>
    <style>
      .cls-1 {
        fill: #696b6b;
        stroke: #000;
        stroke-width: 1px;
      }
    </style>
  </defs>
  <rect class="cls-1" width="1800" height="2550"/>
</svg>
