<svg xmlns="http://www.w3.org/2000/svg" width="1800" height="2550" viewBox="0 0 1800 2550">
  <defs>
    <style>
      .cls-1 {
        fill: #e0d911;
      }
    </style>
  </defs>
  <rect id="Rechthoek_1" data-name="Rechthoek 1" class="cls-1" width="1800" height="2550"/>
</svg>
